299 182 128
195 991 179
277 40 128
380 671 145
65 529 144
54 205 125
48 653 145
193 827 171
26 56 113
422 595 142
47 545 144
397 754 171
420 775 171
447 947 179
437 322 144
50 914 179
468 28 144
157 621 144
56 606 144
253 814 171
301 435 144
372 210 144
371 408 121
343 269 144
443 741 171
360 187 144
421 946 179
157 36 122
206 824 171
369 146 144
457 400 134
124 645 144
146 177 125
328 187 144
167 670 145
428 686 145
51 439 144
406 711 171
107 47 119
377 354 108
109 753 171
87 981 179
201 668 145
373 344 126
94 450 144
451 462 129
87 342 144
303 672 145
347 698 145
208 338 144
344 56 144
259 117 128
379 135 144
128 222 125
367 362 95
256 890 179
111 656 145
150 74 122
325 340 144
282 577 144
284 67 128
369 993 179
252 303 123
305 535 144
99 77 119
185 266 128
390 257 144
455 346 134
290 769 171
134 340 144
183 724 171
317 907 179
355 731 171
389 351 126
274 709 171
440 456 116
495 156 144
317 799 171
104 576 144
177 214 120
311 428 144
319 246 131
157 703 171
265 673 145
167 994 179
261 154 128
288 333 144
322 611 144
135 331 144
149 923 179
270 534 144
447 567 142
389 804 171
195 510 144
128 941 179
153 958 179
149 139 117
299 812 171
363 161 144
247 141 128
23014 54202 340
19323 46231 324
85778 91235 333
4035 74992 340
20179 40640 324
4611 61129 340
65918 83173 351
66866 55611 335
74140 96253 351
77850 37118 351
69274 73137 325
96772 33525 351
36364 3021 324
2217 46470 324
26427 81132 351
31704 15988 308
5628 40142 324
12795 43294 324
51197 47955 296
79688 26224 351
21028 28875 308
83599 3538 351
93324 82641 333
62915 27410 340
26950 53135 340
65862 43580 340
95517 64106 351
35430 23755 311
82865 7150 351
40894 93542 351
3712 44730 324
28003 27452 259
90789 18975 351
92649 59377 351
58026 56655 304
66631 73942 325
75239 75708 263
61714 48341 340
12096 95383 351
1647 4956 238
55332 46344 340
87815 64504 351
85224 16756 351
2512 51096 324
16209 82377 351
43311 90812 351
67096 80511 351
75601 36117 340
51413 34829 324
34894 95678 351
7746 32758 308
63106 36386 340
16124 96727 351
5153 18279 279
77300 56180 351
83537 77339 338
70317 78688 351
11882 5192 268
6384 52618 340
15052 10585 276
11167 30098 308
30276 70403 340
50140 34182 324
69294 21159 340
80532 29456 351
66646 33660 340
23827 34391 311
85890 4562 351
58685 1056 340
8330 97367 351
19820 23407 274
48846 69769 340
91771 61862 351
98980 5280 351
58094 37545 340
40950 21431 324
51484 77825 351
13892 70668 340
83318 2934 351
89964 36546 351
73526 1528 340
68044 34957 340
24161 28212 308
88902 22973 351
39245 78459 351
2026 4206 238
76277 31364 340
15613 93303 351
41332 25671 324
2943 28889 308
90746 50676 351
10691 78736 351
38892 43474 306
72471 86338 351
88670 75978 351
37044 38853 306
34144 43958 324
99616 48707 351
55451 73269 335
8677 93897 351
37658 8301 324
28339 28070 259
70693 13106 340
68392 87843 351
26580 6113 282
65806 55797 335
82029 62420 351
73072 14365 340
55794 41290 340
79012 24968 351
67027 20464 340
31767 12896 308
39088 73820 340
2757 52217 324
4972 69022 340
64176 14062 340
42886 16546 324
96506 48153 351
17439 86882 351
25593 11651 282
32338 70978 340
29601 56570 340
38383 55555 340
35378 81763 351
45983 2908 324
31266 83127 351
10512 22951 279
6290 64104 340
14381 90846 351
57421 15620 340
24350 74945 340
2884 24386 282
88163 61449 351
93266 8673 351
84523 97340 333
28573 70222 340
12893 63249 340
42787 1513 324
97110 13512 351
54657 92418 351
94049 30820 351
32441 72988 340
93703 38586 351
76875 47741 340
31304 84669 351
68183 58426 335
14435 36202 324
76558 38410 340
39131 77389 351
82267 93788 333
260577 173783 443
251843 390200 441
548671 541342 452
847201 300713 525
144034 991546 525
402642 495605 449
848161 373287 525
110916 426196 449
121705 993739 525
882094 145665 525
520477 182073 470
445200 444223 338
318113 651783 509
701829 713151 504
684063 835936 504
333397 620472 470
431631 713760 509
237782 956215 525
609313 747046 509
142816 115969 375
391288 653813 509
865093 238803 525
412778 119844 449
477890 885568 525
600564 655449 509
341925 309503 384
927549 704619 525
490429 161063 449
496692 799457 509
740534 444018 509
776685 166469 509
772180 124333 509
558359 334642 470
384878 446992 449
622834 632424 509
561498 811820 509
957225 322465 525
107791 890821 525
994217 143855 525
939124 345191 525
935578 107900 525
324453 994601 525
823774 607596 509
775328 906718 525
423988 850266 525
866113 180862 525
154074 975420 525
814844 292118 509
638014 330484 509
515539 434919 470
